Crosswalk of Habitat Codes • eunis.habitats
…
      Source: vignettes/articles/crosswalks.Rmd
      crosswalks.Rmd

The function crosswalk() provides an easy mapping from
habitat codes in one classification system to another.

From EUNIS 2012 to EUNIS Marine 2022

crosswalk(
  code = c("A3.4", "A3.5"),
  from = "EUNIS_2012",
  to = "EUNIS_M_2022",
  unnest = TRUE
)
#> # A tibble: 64 × 2
#>    eunis_2012_code eunis_m_2022_code
#>    <chr>           <chr>            
#>  1 A3.4            MA133            
#>  2 A3.4            MA134            
#>  3 A3.4            MA135            
#>  4 A3.4            MA136            
#>  5 A3.4            MA137            
#>  6 A3.4            MB13             
#>  7 A3.4            MB131            
#>  8 A3.4            MB1311           
#>  9 A3.4            MB1312           
#> 10 A3.4            MB1313           
#> # ℹ 54 more rows
…
