EUNIS Classification Systems • eunis.habitats
…
      Source: vignettes/articles/eunis-classification.Rmd
      eunis-classification.Rmd

EUNIS habitats are provided as the tidy data set
eunis_habitats, each row corresponding to a habitat at
varying levels of description.

eunis_habitats
#> # A tibble: 13,115 × 8
#>    classification section version group level code    name           description
#>    <chr>          <chr>   <chr>   <chr> <int> <chr>   <chr>          <chr>      
#>  1 EUNIS_2012     NA      2012    NA        1 A       Marine habita… "Marine ha…
#>  2 EUNIS_2012     NA      2012    NA        2 A1      Littoral rock… "Littoral …
#>  3 EUNIS_2012     NA      2012    NA        3 A1.1    High energy l… "Extremely…
#>  4 EUNIS_2012     NA      2012    NA        4 A1.11   Mussel and/or… "Communiti…
#>  5 EUNIS_2012     NA      2012    NA        5 A1.111  [Mytilus edul… "On very e…
#>  6 EUNIS_2012     NA      2012    NA        5 A1.112  [Chthamalus] … "Very expo…
#>  7 EUNIS_2012     NA      2012    NA        6 A1.1121 [Chthamalus m… "Very expo…
#>  8 EUNIS_2012     NA      2012    NA        6 A1.1122 [Chthamalus] … "Areas of …
#>  9 EUNIS_2012     NA      2012    NA        5 A1.113  [Semibalanus … "Exposed t…
#> 10 EUNIS_2012     NA      2012    NA        6 A1.1131 [Semibalanus … "Very expo…
#> # ℹ 13,105 more rows
…
